lapin tulipe camion
blah blah

fleur tisane






1 tête de chat :

     |\---/|
   _\| o_o |/_
    / \_^_/\


1 chat qui dort :

      |\      _,,,---,,_
ZZZzz /,`.-'`'    -.  ;-;;,_
     |,4-  ) )-,_. ,\ (  `'-'
    '---''(_/--'  `-'\_)  Felix Lee 







4 sapins :

      /\              /\              /\              /\      
     /\*\            /\*\            /\*\            /\*\     
    /\O\*\          /\O\*\          /\O\*\          /\O\*\    
   /*/\/\/\        /*/\/\/\        /*/\/\/\        /*/\/\/\   
  /\O\/\*\/\      /\O\/\*\/\      /\O\/\*\/\      /\O\/\*\/\  
 /\*\/\*\/\/\    /\*\/\*\/\/\    /\*\/\*\/\/\    /\*\/\*\/\/\ 
/\O\/\/*/\/O/\  /\O\/\/*/\/O/\  /\O\/\/*/\/O/\  /\O\/\/*/\/O/\
      ||              ||              ||              ||      
      ||              ||              ||              ||      
      ||              ||              ||              ||      




1 rabbit : 

   ***       
  ** **
 **   **
 **   **         **** 
 **   **       **   ****
 **  **       *   **   **
  **  *      *  **  ***  **
   **  *    *  **     **  *
    ** **  ** **        **
    **   **  **
   *           *
  *             *
 *    0     0    *
 *   /   @   \   *
 *   \__/ \__/   *
   *     W     *
     **     **   
       *****



M.C. Esher's Waterfall by Veronica Karlsson

                _.-"""-._
               .'         `.
              /             \
             |               |
             |               |
             |               |
              \             /                              _.-"""-._
             _.`.         .'.                            .'         `.
            |`-._`-.._..-'_.-|                          /             \
            |  _ `-._ _.-'   |                         |               |
            | | `-._ " _.-'| |                         |               |
            | |    || |    | |                         |               |
            | |    || |    | |                          \             /
            | |    || |    | |                          _`.         .'.
            | |    || |    | |                         |`-.`-.._..-'.-'|
            | |    || |    | |                         |    `-._.-'    |
            | | _.-'| |_   | |                         | |`-._   _.-'| |
            | |'_.-'| |_`-.| |                         | |   || |    | |
           |_.-'    | | `-._ `._|`-._                  | |   || |    | |
          /    /    | |     ``---._  `-._              | |   || |    | |
         | / /    .-' `-._|`-._    ``-._ `-._          | |   || |    | |
        || ||  / /|-| |-._     `-._     `--._`-._|`-._ | |   || |    | |
           | |   ' || |\  `-._     `-._      ``---._  `| |   || |    | |
        | - | | |  || | \  | |`-._     `-._|`-._    ``-| |`-.|| |    | |
    _.-'    |   |  || |  \ | |    `-._          `-._   | |-._ | |._  | |
_.-'     |     |   || |   \| |        `-._          `-.| |   `| |_ `-| |
        |    |  |  || |    | |            `-._       _.| |    | | `.-| |
        |   |  ||  || |    | |              _.-'|_.-'_.-'     | |_.-'  |
         | | |  .  || |    | |          _.-' __.---''       _.| '      |
        |   |  ||  || |    | |\_.-'|_.-'_.-''      _.-'|_.-'        _. |
         | |  |    || |    | |'      _-        _.-'             _.-' | |
        ||    ||   || |_.-'| |_.---''      _.-'             _  |     | |
\          | |  |  || |_.-'| |    _.-'|_.-'             _.-'|| |     | |
 \      |  ||    .'_| |    | |_.-'                  _.-'| | || |     | |
  \     | |     |._ | |    | `-._               _.-'    | | || |     | |
   \    ||  |  |   `| |    ```-._`-._|`-._  _.-'        | | || |     | |
   |\_.-|       |      `-._      ``---._  `-._          | | || |     | |
   |     |                 `-._|`-._    ``-._ `-._      | | || |     | |
   |    || ||  |                    `-._     `--._`-._|`| | || |     | |
   |       | |  |                       `-._      ``---.| |`|| |     | |
   |    |   | | |`-._                       `-._|`-._   | |-.| |-._  | |
   |        |      ||`-._                            `-.| |  | |._ `-| |
   |    |    |  |  || |  `-._                         _.| |  | |  `-_| |
   |    |   |  ||__ | |    | `-._            _.-'|_.-'_.-'   | |_.-'   |
   |     | | |  ._.-| |.   | |   `-._    _.-' __.---''      _|         |
   |    |   |  ||/  | | \  | |  _.-'|_.-'_.-''     _.-'|_.-'           |
   |    ||    ||    | |  .'| |-' __.---''      _.-'                    |
   |       | |  |   |.|   '| |-''     _.-'|_.-'                        |
   |    |  ||  _.   | |  | | |    _.-'                                 |
   |    | |  '  |   | |    | |_.-'                                     |
   |    ||  |  | \  | | / _| '                                      _.-'
   |_.-'     |   _`.| |'-'                                      _.-'
   |`-._          _.|                                       _.-'
   |    `-._  _.-'                                      _.-'
   |        |'                                      _.-'
   |        |                                   _.-'
   |        |                               _.-'
   |        |                           _.-'
   |        |                       _.-'
   |        |                   _.-'
   |        |               _.-'
_  |        |           _.-'
 `-|_       |       _.-'
     `-._   |   _.-'
         `-.|.-'



1 Labyrinthe :

___________________________________  
| _____ |   | ___ | ___ ___ | |   | |
| |   | |_| |__ | |_| __|____ | | | |
| | | |_________|__ |______ |___|_| |
| |_|   | _______ |______ |   | ____|
| ___ | |____ | |______ | |_| |____ |
|___|_|____ | |   ___ | |________ | |
|   ________| | |__ | |______ | | | |
| | | ________| | __|____ | | | __| |
|_| |__ |   | __|__ | ____| | |_| __|
|   ____| | |____ | |__ |   |__ |__ |
| |_______|_______|___|___|___|_____|










